#GO.ID	Weight01F	Obs-Exp
GO:0015031	5.90E-14	49.22
GO:0006412	4.10E-13	53.88
GO:0006184	6.50E-12	23.3
GO:0032482	3.60E-11	11.3
GO:0006461	2.10E-09	37.4
GO:0007264	3.80E-09	30.45
GO:0006334	5.20E-09	20.09
GO:0043161	5.80E-09	17.67
GO:0000022	9.40E-09	19.56
GO:0006096	8.50E-08	10.05
GO:0006099	2.10E-06	11.88
GO:0006120	7.50E-06	9.26
GO:0022008	1.10E-05	55.02
GO:0000398	1.50E-05	30.37
GO:0007095	3.80E-05	13.35
GO:0015672	4.90E-05	24.89
GO:0015991	2.60E-04	8.2
GO:0035220	3.50E-04	27.53
GO:0006886	3.80E-04	23.25
GO:0003333	5.00E-04	7.94
GO:0006457	5.20E-04	13.6
GO:0006471	5.40E-04	4.89
GO:0006520	5.50E-04	23.62
GO:0006367	6.70E-04	14.93
GO:0007067	6.80E-04	6.01
GO:0006414	7.90E-04	9.62
GO:0006376	1.26E-03	4.42
GO:0010591	1.27E-03	4.1
GO:0006537	1.27E-03	3.68
GO:0016183	1.48E-03	5.57
GO:0050821	2.71E-03	6.47
GO:0006909	2.76E-03	12.11
GO:0008360	2.86E-03	10.82
GO:0060439	3.17E-03	5.31
GO:0022416	3.38E-03	9.82
GO:0007052	3.50E-03	31.53
GO:0032508	3.54E-03	7.47
GO:0007163	3.78E-03	17.64
GO:0006357	3.87E-03	10.49
GO:0006914	3.89E-03	10.19
GO:0000381	3.91E-03	7.78
GO:0006366	4.56E-03	20.8
GO:0007517	4.64E-03	26.83
GO:0006936	4.79E-03	5.36
GO:0030042	4.80E-03	4.42
GO:0006874	4.80E-03	4.36
GO:0009612	4.81E-03	3.63
GO:0061357	4.81E-03	2.95
GO:0006094	4.81E-03	2.95
GO:0016201	4.81E-03	2.95
GO:0035058	4.82E-03	4.36
GO:0051491	4.82E-03	4.36
GO:0007298	5.36E-03	10.08
GO:0043052	5.61E-03	3.89
GO:0030011	5.61E-03	3.52
GO:0044262	5.84E-03	9.61
GO:0001751	5.91E-03	5.13
GO:0060361	5.93E-03	3.42
GO:0006465	5.93E-03	3.42
GO:0001111	5.93E-03	3.42
